<?xml version="1.0" encoding="utf-8"?>
<!-- Generator: Adobe Illustrator 26.0.2, SVG Export Plug-In . SVG Version: 6.00 Build 0)  -->
<svg version="1.1" id="Outline" xmlns="http://www.w3.org/2000/svg" x="0px" y="0px" viewBox="0 0 512 512" style="enable-background:new 0 0 512 512;" xml:space="preserve">
<style type="text/css">
	.st0{fill:fill="#328C42";}
</style>
<circle class="st0" cx="117.3" cy="303.7" r="32" fill="#328C42"/>
<path class="st0" d="M405.3,64H106.7C47.8,64.1,0.1,111.8,0,170.7v170.7C0.1,400.2,47.8,447.9,106.7,448h298.7
	c58.9-0.1,106.6-47.8,106.7-106.7V170.7C511.9,111.8,464.2,64.1,405.3,64z M106.7,106.7h298.7c35.3,0,64,28.7,64,64H42.7
	C42.7,135.3,71.3,106.7,106.7,106.7z M405.3,405.3H106.7c-35.3,0-64-28.7-64-64v-128h426.7v128C469.3,376.7,440.7,405.3,405.3,405.3
	z" fill="#328C42"/>
</svg>
