<?xml version="1.0" encoding="utf-8"?>
<!-- Generator: Adobe Illustrator 26.0.2, SVG Export Plug-In . SVG Version: 6.00 Build 0)  -->
<svg version="1.1" id="svg1139" xmlns="http://www.w3.org/2000/svg" x="0px" y="0px" viewBox="0 0 56.69 56.69"
	style="enable-background:new 0 0 56.69 56.69;" xml:space="preserve">
<style type="text/css">
	.st0{fill-rule:evenodd;clip-rule:evenodd;fill:#FFFFFF;}
</style>
	<g id="layer1" transform="translate(-25.414562,-111.28127)">
	
		<path id="rect6094-5-9" class="st0" d="
		M53.75,123.5c-4.09,0-8.17,1.39-11.49,4.18c-2,1.68-3.54,3.72-4.62,5.95c-0.15-0.01-0.29-0.05-0.45-0.05
		c-2.67,0-4.82,2.15-4.82,4.82v5.96c0,2.67,2.15,4.82,4.82,4.82c0.15,0,0.3-0.03,0.45-0.05c0.19,0.4,0.39,0.79,0.61,1.18
		c0.88,1.56,3.22,0.22,2.31-1.32c-3.7-6.41-2.27-14.53,3.4-19.28c5.67-4.76,13.9-4.76,19.57,0c5.67,4.76,7.1,12.87,3.4,19.28
		l-0.04,0.07l-0.03,0.07c0,0-1.8,3.97-5.32,3.97l-4.47-0.04c-0.42-0.61-1.09-1.04-1.89-1.04h-2.88c-1.29,0-2.33,1.04-2.33,2.33
		c0,0.8,0.51,1.4,1.66,1.4l9.9,0c5.29,0,7.58-5.2,7.69-5.44v-0.01c0.22-0.38,0.42-0.78,0.61-1.17c0.16,0.01,0.31,0.05,0.47,0.05
		c2.67,0,4.82-2.15,4.82-4.82v-5.96c0-2.67-2.15-4.82-4.82-4.82c-0.15,0-0.3,0.03-0.45,0.05c-1.07-2.24-2.61-4.28-4.61-5.95
		C61.94,124.89,57.84,123.5,53.75,123.5L53.75,123.5z M47.95,131.97c-1.04-0.07-1.99,0.15-2.81,1.02c-2.21,2.32-3.57,5.49-3.57,8.86
		c0,2.78,0.93,5.89,2.49,6.01c2.23,0.16,5.75-1.3,9.71-1.3c4.2,0,7.9,1.64,10.1,1.25c1.33-0.24,2.11-3.42,2.11-5.96
		c0-3.37-1.37-6.53-3.58-8.86c-2.21-2.33-5.26,0-8.63,0C51.66,132.99,49.67,132.08,47.95,131.97z M47.45,137.7
		c1.23,0,2.23,1,2.23,2.23c0,1.23-1,2.23-2.23,2.23c-1.23,0-2.23-1-2.23-2.23C45.22,138.7,46.22,137.7,47.45,137.7z M60.07,137.7
		c1.23,0,2.23,1,2.23,2.23c0,1.23-1,2.23-2.23,2.23c-1.23,0-2.23-1-2.23-2.23C57.84,138.7,58.84,137.7,60.07,137.7z" fill="#FFFFFF"/>
</g>
</svg>
